3294
221-291
244-289
244-289
270-277
270-277
297-262
297-262
312-242
312-242
309-235
320-205
320-192
341-155
254-175
241-107
231-112
196-13
176-72
159-98
150-103
139-165
99-148
79-147
38-128
59-187
59-187
65-215
67-241
123-279
164-286
